[gd_scene format=3 uid="uid://c6t122iu7bwwe"]

[node name="TabContainer" type="TabContainer"]
offset_right = 40.0
offset_bottom = 40.0
scale = Vector2(9.28, 9.28)

[node name="Tab1" type="Control" parent="."]
layout_mode = 2
tooltip_text = "The first tab."

[node name="MarginContainer" type="MarginContainer" parent="Tab1"]
layout_mode = 0
offset_right = 40.0
offset_bottom = 40.0
